\relax 
\providecommand\hyper@newdestlabel[2]{}
\providecommand\HyperFirstAtBeginDocument{\AtBeginDocument}
\HyperFirstAtBeginDocument{\ifx\hyper@anchor\@undefined
\global\let\oldcontentsline\contentsline
\gdef\contentsline#1#2#3#4{\oldcontentsline{#1}{#2}{#3}}
\global\let\oldnewlabel\newlabel
\gdef\newlabel#1#2{\newlabelxx{#1}#2}
\gdef\newlabelxx#1#2#3#4#5#6{\oldnewlabel{#1}{{#2}{#3}}}
\AtEndDocument{\ifx\hyper@anchor\@undefined
\let\contentsline\oldcontentsline
\let\newlabel\oldnewlabel
\fi}
\fi}
\global\let\hyper@last\relax 
\gdef\HyperFirstAtBeginDocument#1{#1}
\providecommand\HyField@AuxAddToFields[1]{}
\providecommand\HyField@AuxAddToCoFields[2]{}
\@writefile{toc}{\contentsline {chapter}{\numberline {1}Arduino Benchmark System}{1}{chapter.1}}
\@writefile{lof}{\addvspace {10\p@ }}
\@writefile{lot}{\addvspace {10\p@ }}
\newlabel{index}{{1}{1}{Arduino Benchmark System}{chapter.1}{}}
\@writefile{toc}{\contentsline {section}{\numberline {1.1}Overview}{1}{section.1.1}}
\newlabel{index_sec_overview}{{1.1}{1}{Overview}{section.1.1}{}}
\@writefile{toc}{\contentsline {section}{\numberline {1.2}How it Works}{1}{section.1.2}}
\newlabel{index_sec_how}{{1.2}{1}{How it Works}{section.1.2}{}}
\@writefile{toc}{\contentsline {chapter}{\numberline {2}File Index}{3}{chapter.2}}
\@writefile{lof}{\addvspace {10\p@ }}
\@writefile{lot}{\addvspace {10\p@ }}
\@writefile{toc}{\contentsline {section}{\numberline {2.1}File List}{3}{section.2.1}}
\@writefile{toc}{\contentsline {chapter}{\numberline {3}File Documentation}{5}{chapter.3}}
\@writefile{lof}{\addvspace {10\p@ }}
\@writefile{lot}{\addvspace {10\p@ }}
\@writefile{toc}{\contentsline {section}{\numberline {3.1}Arduino\discretionary {\unhbox \voidb@x \hbox {\relax \fontsize  {7}{8}\selectfont  $\leftarrow \joinrel  \rhook $}}{}{}Benchmark.\discretionary {\unhbox \voidb@x \hbox {\relax \fontsize  {7}{8}\selectfont  $\leftarrow \joinrel  \rhook $}}{}{}ino File Reference}{5}{section.3.1}}
\newlabel{_arduino_benchmark_8ino}{{3.1}{5}{Arduino\+Benchmark.\+ino File Reference}{section.3.1}{}}
\@writefile{toc}{\contentsline {subsection}{\numberline {3.1.1}Detailed Description}{5}{subsection.3.1.1}}
\@writefile{toc}{\contentsline {subsection}{\numberline {3.1.2}Macro Definition Documentation}{6}{subsection.3.1.2}}
\@writefile{toc}{\contentsline {subsubsection}{\numberline {3.1.2.1}N\discretionary {\unhbox \voidb@x \hbox {\relax \fontsize  {7}{8}\selectfont  $\leftarrow \joinrel  \rhook $}}{}{}U\discretionary {\unhbox \voidb@x \hbox {\relax \fontsize  {7}{8}\selectfont  $\leftarrow \joinrel  \rhook $}}{}{}M\discretionary {\unhbox \voidb@x \hbox {\relax \fontsize  {7}{8}\selectfont  $\leftarrow \joinrel  \rhook $}}{}{}A\discretionary {\unhbox \voidb@x \hbox {\relax \fontsize  {7}{8}\selectfont  $\leftarrow \joinrel  \rhook $}}{}{}N\discretionary {\unhbox \voidb@x \hbox {\relax \fontsize  {7}{8}\selectfont  $\leftarrow \joinrel  \rhook $}}{}{}G\discretionary {\unhbox \voidb@x \hbox {\relax \fontsize  {7}{8}\selectfont  $\leftarrow \joinrel  \rhook $}}{}{}S}{6}{subsubsection.3.1.2.1}}
\newlabel{_arduino_benchmark_8ino_a477162d50cd0f8a543a57133031b24fe}{{3.1.2.1}{6}{N\+U\+M\+A\+N\+G\+S}{subsubsection.3.1.2.1}{}}
\@writefile{toc}{\contentsline {subsubsection}{\numberline {3.1.2.2}N\discretionary {\unhbox \voidb@x \hbox {\relax \fontsize  {7}{8}\selectfont  $\leftarrow \joinrel  \rhook $}}{}{}U\discretionary {\unhbox \voidb@x \hbox {\relax \fontsize  {7}{8}\selectfont  $\leftarrow \joinrel  \rhook $}}{}{}M\discretionary {\unhbox \voidb@x \hbox {\relax \fontsize  {7}{8}\selectfont  $\leftarrow \joinrel  \rhook $}}{}{}T\discretionary {\unhbox \voidb@x \hbox {\relax \fontsize  {7}{8}\selectfont  $\leftarrow \joinrel  \rhook $}}{}{}E\discretionary {\unhbox \voidb@x \hbox {\relax \fontsize  {7}{8}\selectfont  $\leftarrow \joinrel  \rhook $}}{}{}S\discretionary {\unhbox \voidb@x \hbox {\relax \fontsize  {7}{8}\selectfont  $\leftarrow \joinrel  \rhook $}}{}{}T\discretionary {\unhbox \voidb@x \hbox {\relax \fontsize  {7}{8}\selectfont  $\leftarrow \joinrel  \rhook $}}{}{}S}{6}{subsubsection.3.1.2.2}}
\newlabel{_arduino_benchmark_8ino_a43073ae95bea8b1174cf5a9822fe9b43}{{3.1.2.2}{6}{N\+U\+M\+T\+E\+S\+T\+S}{subsubsection.3.1.2.2}{}}
\@writefile{toc}{\contentsline {subsubsection}{\numberline {3.1.2.3}P\discretionary {\unhbox \voidb@x \hbox {\relax \fontsize  {7}{8}\selectfont  $\leftarrow \joinrel  \rhook $}}{}{}I}{6}{subsubsection.3.1.2.3}}
\newlabel{_arduino_benchmark_8ino_a598a3330b3c21701223ee0ca14316eca}{{3.1.2.3}{6}{P\+I}{subsubsection.3.1.2.3}{}}
\@writefile{toc}{\contentsline {subsection}{\numberline {3.1.3}Function Documentation}{6}{subsection.3.1.3}}
\@writefile{toc}{\contentsline {subsubsection}{\numberline {3.1.3.1}benchmark}{6}{subsubsection.3.1.3.1}}
\newlabel{_arduino_benchmark_8ino_aca556c125cbdcc36b86c16ac85e4763a}{{3.1.3.1}{6}{benchmark}{subsubsection.3.1.3.1}{}}
\@writefile{toc}{\contentsline {subsubsection}{\numberline {3.1.3.2}loop}{6}{subsubsection.3.1.3.2}}
\newlabel{_arduino_benchmark_8ino_afe461d27b9c48d5921c00d521181f12f}{{3.1.3.2}{6}{loop}{subsubsection.3.1.3.2}{}}
\@writefile{toc}{\contentsline {subsubsection}{\numberline {3.1.3.3}setup}{6}{subsubsection.3.1.3.3}}
\newlabel{_arduino_benchmark_8ino_a4fc01d736fe50cf5b977f755b675f11d}{{3.1.3.3}{6}{setup}{subsubsection.3.1.3.3}{}}
